<?xml version="1.0" encoding="UTF-8"?>
<svg width="126px" height="25px" viewBox="0 0 126 25" version="1.1" xmlns="http://www.w3.org/2000/svg" xmlns:xlink="http://www.w3.org/1999/xlink">
    <!-- Generator: Sketch 57.1 (83088) - https://sketch.com -->
    <title>Group 2</title>
    <desc>Created with Sketch.</desc>
    <g id="Page-1" stroke="none" stroke-width="1" fill="none" fill-rule="evenodd">
        <g id="Desktop-HD" transform="translate(-96.000000, -23.000000)">
            <g id="Group-2" transform="translate(96.000000, 23.000000)">
                <text id="YOUR-LOGO" font-family="TitilliumWeb-Bold, Titillium Web" font-size="18" font-weight="bold" letter-spacing="0.0942976667" fill="#204341">
                    <tspan x="35" y="20">SOCIAL</tspan>
                </text>
                <rect id="Rectangle" fill="#27DEBF" x="0" y="0" width="25" height="25"></rect>
            </g>
        </g>
    </g>
</svg>
